<svg xmlns="http://www.w3.org/2000/svg" width="24" height="24" viewBox="0 0 24 24">
  <g id="arrow_white" transform="translate(0 -2)">
    <g id="gifOS_captura_7_exito" transform="translate(-60 -77)">
      <g id="nav-bar" transform="translate(1 1)">
        <g id="arrow" transform="translate(142 180) rotate(180)">
          <path id="Path_324" data-name="Path 324" d="M80.333,88.667H83v2.667H80.333V94H77.667V91.333H59V88.667H77.667V86h2.667ZM75,83.333h2.667V86H75Zm-2.667-2.667H75v2.667H72.333ZM69.667,78h2.667v2.667H69.667ZM75,96.667V94h2.667v2.667Zm-2.667,2.667V96.667H75v2.667ZM69.667,102V99.333h2.667V102Z" fill="#fff"/>
          <path id="Path_325" data-name="Path 325" d="M80.333,88.667H83v2.667H80.333V94H77.667V91.333H59V88.667H77.667V86h2.667ZM75,83.333h2.667V86H75Zm-2.667-2.667H75v2.667H72.333ZM69.667,78h2.667v2.667H69.667ZM75,96.667V94h2.667v2.667Zm-2.667,2.667V96.667H75v2.667ZM69.667,102V99.333h2.667V102Z" fill="#fff"/>
        </g>
      </g>
    </g>
  </g>
</svg>
